<svg width="60" height="60" viewBox="0 0 60 60" fill="none" xmlns="http://www.w3.org/2000/svg">
<rect width="60" height="60" rx="6" fill="#181818"/>
<rect x="28.68" y="41" width="22" height="2.64" transform="rotate(-90 28.68 41)" fill="white"/>
<rect x="19" y="28.6802" width="22" height="2.64" fill="white"/>
</svg>
